Homework 1
…
However, the boxplot also reveal that the outliers in 2022 shows more extreme outlier days, suggesting that while the overall conditions got cleaner, there are still occasional more severe pollution events.

county_summary <- data_all %>%
  group_by(county) %>%
  summarise(
    mean_2002= mean(pm[year==2002], na.rm = TRUE),
    mean_2022= mean(pm[year==2022], na.rm = TRUE),
    diff_pm= mean(pm[year == 2022], na.rm = TRUE)- mean(pm[year == 2002], na.rm = TRUE),
    .groups = "drop"
  ) %>%
  arrange(county)

print(county_summary)

# A tibble: 51 × 4
   county       mean_2002 mean_2022 diff_pm
   <chr>            <dbl>     <dbl>   <dbl>
 1 Alameda          14.3       8.20  -6.05 
 2 Butte            14.8       6.19  -8.57 
 3 Calaveras         9.9       6.04  -3.86 
 4 Colusa           11.7       7.61  -4.12 
 5 Contra Costa     15.1       8.24  -6.85 
 6 Del Norte         3.82      4.97   1.15 
 7 El Dorado         4.91      4.07  -0.847
 8 Fresno           19.9      10.2   -9.74 
 9 Glenn           NaN         5.34 NaN    
10 Humboldt          7.79      6.76  -1.04 
# ℹ 41 more rows

From the table, we saw that there are some counties with missing data in either year, filtering them out for a better comparison.

county_summary_filtered <- county_summary %>%
  filter(!is.na(mean_2002), !is.na(mean_2022)) %>%
  mutate(diff_pm = mean_2022 - mean_2002)

print(county_summary_filtered)

# A tibble: 47 × 4
   county       mean_2002 mean_2022 diff_pm
   <chr>            <dbl>     <dbl>   <dbl>
 1 Alameda          14.3       8.20  -6.05 
 2 Butte            14.8       6.19  -8.57 
 3 Calaveras         9.9       6.04  -3.86 
 4 Colusa           11.7       7.61  -4.12 
 5 Contra Costa     15.1       8.24  -6.85 
 6 Del Norte         3.82      4.97   1.15 
 7 El Dorado         4.91      4.07  -0.847
 8 Fresno           19.9      10.2   -9.74 
 9 Humboldt          7.79      6.76  -1.04 
10 Imperial         12.7       9.55  -3.16 
# ℹ 37 more rows
…
